# 3ds Max Wavefront OBJ Exporter v0.97b - (c)2007 guruware
# File Created: 05.03.2020 11:32:34

mtllib MedRock2_low.mtl

#
# object MedRock2_Low
#

v  -1.0122 -0.0232 -0.3509
v  -0.9740 -0.0247 -0.4223
v  -0.9106 -0.0249 -0.2747
v  -0.9774 -0.0237 -0.2474
v  -1.0252 0.0037 -0.2280
v  -1.0629 -0.0097 -0.3991
v  -1.0166 -0.0101 -0.4854
v  0.2852 0.1671 -0.8262
v  0.2088 0.1322 -0.9653
v  0.2136 0.2783 -0.8988
v  0.3164 0.3307 -0.7262
v  0.3801 0.4427 -0.5980
v  0.4148 0.3068 -0.5920
v  0.2790 0.5193 -0.7129
v  0.8359 -0.0254 0.2150
v  0.7679 -0.0255 0.3292
v  0.7041 -0.0251 0.1840
v  0.7947 -0.0251 0.1055
v  0.9112 -0.0258 0.2394
v  0.8655 -0.0257 0.3861
v  0.8839 -0.0255 0.0525
v  0.9521 0.1875 0.2666
v  0.9216 0.2611 0.1664
v  0.8417 0.2866 0.2893
v  0.9159 0.1686 0.3837
v  0.9762 0.0917 0.4148
v  1.0424 0.0960 0.2348
v  0.9682 0.2173 0.0861
v  -1.0831 0.1264 -0.4175
v  -1.0598 0.1596 -0.4293
v  -1.0408 0.1027 -0.4919
v  -1.0941 0.0960 -0.4131
v  -1.0478 0.2721 -0.3081
v  -0.9951 0.2925 -0.3791
v  -1.0344 0.2195 -0.2445
v  0.0906 1.0396 0.0222
v  -0.0084 1.0524 0.0089
v  0.0412 0.9993 0.1529
v  0.1400 0.9807 0.1184
v  0.2122 0.9147 0.0176
v  0.1230 1.0021 -0.0794
v  0.0274 1.0258 -0.1140
v  0.0027 -0.0256 -0.8532
v  0.0694 -0.0254 -0.7947
v  -0.0547 -0.0255 -0.7280
v  -0.0913 -0.0256 -0.8315
v  -0.1036 -0.0257 -0.9175
v  0.0433 -0.0256 -0.9176
v  0.1306 -0.0254 -0.8593
v  0.4368 0.1929 0.8758
v  0.0650 0.2088 0.9734
v  0.0720 0.0895 0.9840
v  0.4627 0.0741 0.9258
v  0.7866 0.1183 0.6569
v  0.7530 0.1893 0.5959
v  0.4689 0.2651 0.7960
v  0.8370 0.0407 0.6904
v  0.2401 0.3195 0.9195
v  0.0535 0.3334 0.9652
v  0.2730 0.3823 0.8770
v  -0.2970 0.6116 -0.4210
v  -0.4008 0.4602 -0.5417
v  -0.6074 0.5573 -0.3387
v  -0.4217 0.6956 -0.2765
v  -0.1663 0.8001 -0.2908
v  -0.0988 0.6446 -0.4888
v  -0.1370 0.4670 -0.6624
v  -0.5848 0.5620 0.4923
v  -0.7910 0.4641 0.4331
v  -0.6664 0.4229 0.6914
v  -0.5053 0.4889 0.6839
v  -0.3255 0.4057 0.9155
v  -0.3067 0.4860 0.7979
v  -0.0553 -0.0254 0.3175
v  0.1522 -0.0253 0.2412
v  0.1389 -0.0254 0.5297
v  -0.1310 -0.0255 0.4903
v  -0.3740 -0.0255 0.3677
v  -0.1462 -0.0253 0.1374
v  0.0660 -0.0252 -0.0020
v  0.4209 0.7034 -0.4143
v  0.5944 0.6083 -0.2320
v  0.6201 0.5091 -0.3163
v  0.3068 0.7552 -0.5143
v  0.5965 0.3704 -0.3699
v  0.0516 0.4472 0.9178
v  -0.8800 0.3409 0.4050
v  -0.7810 0.5890 0.2032
v  -0.9395 0.3449 0.0442
v  -0.9584 0.2225 0.0677
v  -0.9247 0.2009 0.3941
v  -0.8024 0.6583 0.0639
v  -0.9583 0.4617 -0.0885
v  -0.7982 0.6812 -0.0480
v  -0.9254 0.4732 -0.2103
v  -0.7253 0.6371 -0.1664
v  -0.8345 0.4494 -0.3092
v  -0.9032 0.2939 -0.4488
v  -0.9415 0.2024 -0.5262
v  -0.6958 0.4002 -0.4680
v  -0.7536 0.2908 -0.5737
v  -0.7934 0.2266 -0.6360
v  -0.5409 0.2763 -0.7459
v  -0.5896 0.2328 -0.8068
v  -0.6083 0.1588 -0.8225
v  -0.8098 0.1586 -0.6724
v  -0.9482 0.1337 -0.5593
v  -0.8019 0.0819 -0.6693
v  -0.9402 0.0745 -0.5656
v  -1.0349 0.0624 -0.4951
v  -0.9303 0.0186 -0.5582
v  -1.0274 0.0275 -0.4957
v  -1.0830 0.0280 -0.4066
v  -1.0891 0.0576 -0.4139
v  -1.0268 0.0665 -0.2213
v  -1.0302 0.1424 -0.2307
v  -0.9755 0.1048 0.0533
v  -0.9843 0.0138 0.0296
v  -0.9436 0.0004 0.3787
v  -0.9461 0.0915 0.3796
v  -0.6958 0.0245 0.6875
v  -0.7173 0.1078 0.7013
v  -0.7438 0.2003 0.7119
v  -0.3332 0.1012 0.9755
v  -0.3312 0.2352 0.9837
v  -0.3360 0.3282 0.9882
v  -0.7563 0.2975 0.7268
v  -0.3289 0.0116 0.9604
v  0.0784 0.0006 0.9950
v  -0.3039 -0.0249 0.8962
v  0.0900 -0.0253 0.9336
v  0.4783 -0.0249 0.8507
v  0.4845 -0.0147 0.9372
v  0.7879 -0.0254 0.6265
v  0.8412 -0.0235 0.6883
v  0.9353 -0.0258 0.4149
v  0.9995 -0.0203 0.4409
v  1.0113 0.0341 0.4387
v  1.0656 -0.0142 0.2178
v  1.0720 0.0420 0.2196
v  0.9697 0.0734 -0.0010
v  0.9681 0.1579 0.0191
v  0.7953 0.2936 -0.1599
v  0.8149 0.3960 -0.0999
v  0.7882 0.1649 -0.1896
v  0.6043 0.2080 -0.3970
v  0.9544 -0.0096 -0.0003
v  0.7883 0.0600 -0.2038
v  0.6201 0.0883 -0.4077
v  0.4538 0.0766 -0.6025
v  0.4362 0.1777 -0.5944
v  0.7693 -0.0220 -0.1830
v  0.6272 -0.0055 -0.4072
v  0.4614 -0.0051 -0.6097
v  0.3136 -0.0203 -0.7915
v  0.3159 0.0374 -0.8042
v  0.5669 -0.0244 -0.3599
v  0.4112 -0.0244 -0.5661
v  0.2655 -0.0249 -0.7551
v  0.1736 -0.0253 -0.9048
v  0.2136 -0.0243 -0.9460
v  0.3510 -0.0248 -0.5176
v  0.2140 -0.0251 -0.7179
v  0.2706 -0.0249 -0.4588
v  0.1456 -0.0252 -0.6727
v  0.1504 -0.0250 -0.3724
v  0.0255 -0.0253 -0.5790
v  -0.0429 -0.0252 -0.2290
v  -0.1647 -0.0254 -0.4693
v  -0.2446 -0.0256 -0.6451
v  -0.2917 -0.0257 -0.7617
v  -0.3711 -0.0254 -0.3179
v  -0.4634 -0.0255 -0.5096
v  -0.5209 -0.0256 -0.6281
v  -0.5609 -0.0254 -0.7090
v  -0.3232 -0.0258 -0.8431
v  -0.6513 -0.0254 -0.3674
v  -0.7161 -0.0255 -0.5012
v  -0.7573 -0.0249 -0.5886
v  -0.7887 0.0075 -0.6499
v  -0.5942 -0.0016 -0.7749
v  -0.8692 -0.0253 -0.4425
v  -0.9086 -0.0223 -0.5217
v  -0.8006 -0.0252 -0.3012
v  -0.5776 -0.0253 -0.1533
v  -0.7557 -0.0251 -0.0730
v  -0.8544 -0.0250 -0.0274
v  -0.6779 -0.0254 0.2252
v  -0.7898 -0.0255 0.2903
v  -0.8771 -0.0250 0.3405
v  -0.9327 -0.0240 0.0041
v  -0.5914 -0.0257 0.5845
v  -0.6533 -0.0254 0.6463
v  -0.2639 -0.0257 0.8048
v  -0.5089 -0.0256 0.5027
v  -0.2154 -0.0257 0.6834
v  0.1185 -0.0255 0.7115
v  0.1033 -0.0256 0.8425
v  0.4369 -0.0253 0.6183
v  0.4624 -0.0253 0.7506
v  0.6606 -0.0255 0.4556
v  0.7307 -0.0256 0.5552
v  0.4024 -0.0253 0.4319
v  0.5815 -0.0253 0.2827
v  0.5215 -0.0249 0.0202
v  0.6271 -0.0246 -0.0655
v  0.3676 -0.0251 0.1432
v  0.2715 -0.0250 -0.1342
v  0.4026 -0.0248 -0.2322
v  0.4948 -0.0246 -0.3037
v  0.7010 -0.0242 -0.1266
v  -0.5131 -0.0254 0.1246
v  -0.2630 -0.0253 -0.0551
v  -0.6047 0.0764 -0.8044
v  -0.3712 0.0462 -0.9519
v  -0.3619 -0.0220 -0.9141
v  -0.1304 -0.0017 -1.0528
v  -0.1202 -0.0253 -0.9882
v  0.0741 -0.0228 -1.0406
v  0.0611 -0.0255 -0.9831
v  0.0790 0.0234 -1.0612
v  0.2308 0.0093 -0.9712
v  -0.1162 0.0685 -1.0596
v  -0.0981 0.1357 -1.0355
v  0.0769 0.0831 -1.0458
v  -0.3644 0.1239 -0.9702
v  -0.3358 0.1984 -0.9525
v  -0.2918 0.2484 -0.8852
v  -0.0766 0.2135 -0.9682
v  -0.0238 0.3245 -0.8711
v  0.1138 0.3065 -0.9120
v  0.0831 0.1643 -1.0057
v  -0.2296 0.3293 -0.7948
v  0.0665 0.5145 -0.7280
v  -0.4818 0.3476 -0.6584
v  0.1105 0.7240 -0.5303
v  0.2211 0.7643 -0.5377
v  0.1721 0.5341 -0.7536
v  0.1219 0.9125 -0.3092
v  0.2194 0.8856 -0.2679
v  0.0150 0.8755 -0.3092
v  -0.0647 0.9846 -0.1268
v  -0.2456 0.9125 -0.1194
v  -0.5110 0.7960 -0.1176
v  -0.5606 0.8517 -0.0110
v  -0.2742 0.9724 0.0068
v  -0.0870 1.0333 0.0153
v  -0.2584 0.9135 0.1326
v  -0.0615 0.9691 0.1534
v  -0.2225 0.8090 0.3087
v  -0.0008 0.8550 0.3500
v  0.1374 0.8713 0.3563
v  0.0512 0.6812 0.6282
v  0.2015 0.6717 0.6243
v  0.3614 0.5759 0.5327
v  0.2466 0.8127 0.3064
v  0.5512 0.4864 0.3434
v  0.3663 0.7169 0.1845
v  0.7027 0.4765 0.0985
v  0.5038 0.6492 -0.0660
v  0.3231 0.7988 -0.1922
v  0.7812 0.4527 -0.0178
v  0.6858 0.3047 0.4929
v  0.4504 0.3642 0.7031
v  0.2518 0.4951 0.7908
v  0.0292 0.5370 0.8162
v  -0.2357 0.6400 0.5787
v  -0.5403 0.7182 0.2533
v  -0.5543 0.8091 0.1015
v  0.2208 0.0601 -0.9733
v  0.3030 0.0976 -0.8107
v  0.9974 -0.0267 0.2285
# 272 vertices

vn -0.2029 -0.9786 0.0350
vn -0.0851 -0.9923 -0.0902
vn -0.0091 -1.0000 0.0023
vn -0.2341 -0.9705 0.0583
vn -0.8240 -0.5348 0.1870
vn -0.6517 -0.7558 -0.0644
vn -0.4763 -0.7077 -0.5219
vn 0.8483 0.1267 -0.5141
vn 0.6002 0.2420 -0.7623
vn 0.5355 0.3773 -0.7555
vn 0.8166 0.1700 -0.5516
vn 0.7710 0.2228 -0.5966
vn 0.7807 0.1583 -0.6046
vn 0.6140 0.4193 -0.6687
vn -0.0040 -1.0000 -0.0022
vn -0.0018 -1.0000 -0.0015
vn -0.0008 -1.0000 -0.0020
vn -0.0039 -1.0000 -0.0020
vn -0.0083 -1.0000 -0.0012
vn -0.0017 -1.0000 -0.0002
vn 0.0956 -0.9949 -0.0327
vn 0.6995 0.6509 0.2950
vn 0.7309 0.6529 0.1990
vn 0.6165 0.7147 0.3303
vn 0.6432 0.6727 0.3657
vn 0.6932 0.6241 0.3606
vn 0.8365 0.5194 0.1743
vn 0.8590 0.4991 -0.1139
vn -0.8030 0.2481 -0.5419
vn -0.7632 0.4683 -0.4452
vn -0.7183 0.1777 -0.6726
vn -0.9935 0.0397 -0.1067
vn -0.9189 0.3889 -0.0659
vn -0.6043 0.5984 -0.5261
vn -0.9540 0.0497 0.2957
vn 0.3659 0.9241 0.1100
vn -0.0856 0.9951 0.0501
vn 0.0164 0.8982 0.4394
vn 0.5475 0.7822 0.2972
vn 0.7287 0.6836 0.0407
vn 0.5318 0.8259 -0.1874
vn -0.0121 0.9320 -0.3622
vn 0.0012 -1.0000 0.0011
vn 0.0014 -1.0000 0.0011
vn 0.0010 -1.0000 0.0011
vn 0.0010 -1.0000 0.0012
vn 0.0002 -1.0000 -0.0030
vn 0.0016 -1.0000 0.0003
vn 0.0020 -1.0000 0.0007
vn 0.4352 0.4452 0.7825
vn 0.1461 0.0874 0.9854
vn 0.0665 0.1098 0.9917
vn 0.3372 0.3113 0.8885
vn 0.5668 0.6406 0.5180
vn 0.5731 0.6879 0.4454
vn 0.5777 0.5395 0.6125
vn 0.6662 0.3151 0.6759
vn 0.2910 0.2579 0.9213
vn 0.1481 0.2353 0.9606
vn 0.4504 0.4791 0.7534
vn -0.3173 0.6914 -0.6491
vn -0.2699 0.7508 -0.6029
vn -0.3445 0.7117 -0.6122
vn -0.3136 0.6991 -0.6426
vn -0.3373 0.6947 -0.6354
vn -0.3613 0.6808 -0.6371
vn -0.3321 0.7302 -0.5971
vn -0.4116 0.7875 0.4587
vn -0.6823 0.6282 0.3739
vn -0.4780 0.7146 0.5108
vn -0.2791 0.8326 0.4785
vn -0.2223 0.7452 0.6287
vn -0.2189 0.8253 0.5205
vn 0.0004 -1.0000 -0.0006
vn 0.0005 -1.0000 -0.0005
vn 0.0003 -1.0000 -0.0006
vn 0.0002 -1.0000 -0.0007
vn 0.0004 -1.0000 -0.0004
vn 0.0006 -1.0000 -0.0004
vn 0.6847 0.6137 -0.3932
vn 0.6659 0.7283 -0.1614
vn 0.7002 0.4080 -0.5859
vn 0.4770 0.7033 -0.5272
vn 0.7465 0.1331 -0.6520
vn 0.1294 0.5983 0.7908
vn -0.8755 0.4079 0.2589
vn -0.7050 0.6136 0.3556
vn -0.9350 0.2533 0.2480
vn -0.9769 0.1547 0.1475
vn -0.9293 0.2022 0.3092
vn -0.7002 0.6577 0.2777
vn -0.8838 0.4515 0.1223
vn -0.6735 0.7166 -0.1815
vn -0.6690 0.6420 -0.3746
vn -0.4279 0.7063 -0.5639
vn -0.4288 0.6964 -0.5754
vn -0.4503 0.6889 -0.5680
vn -0.6016 0.5342 -0.5939
vn -0.3728 0.7235 -0.5811
vn -0.4030 0.7453 -0.5311
vn -0.5163 0.6339 -0.5759
vn -0.2396 0.8490 -0.4709
vn -0.4198 0.6304 -0.6530
vn -0.5547 0.0610 -0.8298
vn -0.6111 0.2198 -0.7605
vn -0.6310 0.2075 -0.7475
vn -0.5695 -0.1952 -0.7985
vn -0.5898 -0.1000 -0.8014
vn -0.7167 -0.0958 -0.6908
vn -0.5032 -0.4838 -0.7160
vn -0.6881 -0.2476 -0.6821
vn -0.9338 -0.3495 -0.0759
vn -0.9724 -0.1803 -0.1477
vn -0.9707 -0.0317 0.2382
vn -0.9625 -0.0064 0.2713
vn -0.9868 0.0962 0.1304
vn -0.8950 -0.4294 0.1208
vn -0.7578 -0.5641 0.3280
vn -0.9413 0.0535 0.3334
vn -0.5800 -0.5316 0.6173
vn -0.6745 -0.2788 0.6837
vn -0.7104 -0.2349 0.6634
vn -0.3176 -0.1115 0.9416
vn -0.2679 -0.0574 0.9617
vn -0.2422 0.3236 0.9147
vn -0.7588 0.1806 0.6259
vn -0.3092 -0.5540 0.7730
vn 0.0110 -0.4817 0.8763
vn -0.0978 -0.9596 0.2639
vn 0.0183 -0.9751 0.2209
vn 0.0331 -0.9973 0.0653
vn 0.3103 -0.5396 0.7826
vn 0.0089 -0.9999 0.0106
vn 0.5483 -0.6526 0.5229
vn 0.0367 -0.9991 0.0224
vn 0.6365 -0.7166 0.2853
vn 0.8869 0.2087 0.4121
vn 0.7407 -0.6530 -0.1579
vn 0.9866 0.1423 -0.0799
vn 0.8271 -0.0061 -0.5620
vn 0.8471 0.2723 -0.4563
vn 0.7559 0.1657 -0.6333
vn 0.8083 0.4595 -0.3680
vn 0.7482 0.1000 -0.6559
vn 0.7480 0.1497 -0.6466
vn 0.6081 -0.6807 -0.4085
vn 0.7558 -0.1125 -0.6450
vn 0.7636 0.1084 -0.6365
vn 0.7740 0.1560 -0.6137
vn 0.7769 0.1604 -0.6089
vn 0.5128 -0.7971 -0.3188
vn 0.6546 -0.5738 -0.4923
vn 0.6637 -0.5385 -0.5192
vn 0.5524 -0.7498 -0.3642
vn 0.8605 -0.0094 -0.5093
vn 0.1065 -0.9919 -0.0693
vn 0.1148 -0.9896 -0.0863
vn 0.0326 -0.9993 -0.0200
vn 0.0091 -0.9999 -0.0056
vn 0.3365 -0.8894 -0.3095
vn 0.0029 -1.0000 -0.0009
vn 0.0025 -1.0000 0.0002
vn 0.0014 -1.0000 0.0000
vn 0.0015 -1.0000 0.0007
vn 0.0011 -1.0000 0.0001
vn 0.0011 -1.0000 0.0006
vn 0.0007 -1.0000 0.0000
vn 0.0007 -1.0000 0.0005
vn 0.0006 -1.0000 0.0010
vn 0.0004 -1.0000 0.0008
vn 0.0001 -1.0000 0.0004
vn 0.0001 -1.0000 0.0008
vn -0.0007 -1.0000 -0.0003
vn -0.0819 -0.9874 -0.1356
vn -0.0103 -0.9997 -0.0221
vn -0.0005 -1.0000 0.0009
vn -0.0020 -1.0000 -0.0017
vn -0.1065 -0.9771 -0.1843
vn -0.4372 -0.6568 -0.6145
vn -0.4003 -0.7207 -0.5659
vn -0.0075 -0.9999 -0.0136
vn -0.1901 -0.9253 -0.3280
vn -0.0016 -1.0000 0.0010
vn -0.0006 -1.0000 0.0002
vn -0.0012 -1.0000 -0.0001
vn -0.0064 -1.0000 0.0004
vn -0.0002 -1.0000 -0.0009
vn -0.0027 -1.0000 -0.0002
vn -0.1735 -0.9826 0.0665
vn -0.2969 -0.9536 0.0490
vn -0.0014 -1.0000 0.0008
vn -0.2629 -0.9272 0.2669
vn -0.0014 -1.0000 0.0045
vn 0.0001 -1.0000 -0.0008
vn 0.0003 -1.0000 -0.0004
vn 0.0005 -1.0000 -0.0006
vn 0.0009 -1.0000 0.0018
vn 0.0002 -1.0000 0.0002
vn 0.0010 -1.0000 0.0021
vn -0.0010 -1.0000 -0.0007
vn -0.0002 -1.0000 0.0010
vn 0.0001 -1.0000 -0.0005
vn -0.0004 -1.0000 -0.0013
vn 0.0012 -1.0000 -0.0014
vn 0.0024 -1.0000 -0.0021
vn 0.0007 -1.0000 -0.0008
vn 0.0009 -1.0000 -0.0005
vn 0.0012 -1.0000 -0.0005
vn 0.0019 -1.0000 -0.0007
vn 0.0130 -0.9999 -0.0077
vn -0.0001 -1.0000 -0.0004
vn 0.0003 -1.0000 -0.0001
vn -0.5432 -0.2798 -0.7916
vn -0.4801 -0.3175 -0.8177
vn -0.2587 -0.8369 -0.4824
vn -0.2257 -0.5664 -0.7926
vn -0.0324 -0.9814 -0.1892
vn 0.1600 -0.7947 -0.5855
vn 0.0096 -0.9996 -0.0262
vn 0.2410 -0.0992 -0.9654
vn 0.7008 -0.3045 -0.6451
vn -0.1402 0.1516 -0.9784
vn -0.0290 0.5066 -0.8617
vn 0.2512 0.3225 -0.9126
vn -0.4167 0.0960 -0.9039
vn -0.2226 0.6126 -0.7584
vn -0.1514 0.8139 -0.5609
vn -0.0756 0.6698 -0.7386
vn -0.1877 0.6714 -0.7169
vn 0.0435 0.5526 -0.8323
vn 0.1561 0.4691 -0.8692
vn -0.2295 0.7758 -0.5878
vn -0.3247 0.6730 -0.6646
vn -0.2533 0.8051 -0.5363
vn -0.3339 0.6928 -0.6392
vn 0.0148 0.7644 -0.6446
vn 0.0450 0.6189 -0.7842
vn 0.0681 0.8641 -0.4987
vn 0.5491 0.8053 -0.2235
vn -0.3091 0.7339 -0.6049
vn -0.3237 0.8169 -0.4774
vn -0.3356 0.7698 -0.5429
vn -0.3573 0.7218 -0.5928
vn -0.4755 0.8724 -0.1131
vn -0.3487 0.9371 -0.0143
vn -0.2721 0.9599 0.0672
vn -0.3106 0.8185 0.4833
vn -0.2642 0.8263 0.4974
vn -0.2897 0.8068 0.5149
vn -0.1929 0.8189 0.5405
vn 0.2519 0.8391 0.4821
vn -0.0623 0.8193 0.5700
vn 0.3586 0.7405 0.5684
vn 0.6533 0.6420 0.4012
vn 0.6578 0.6847 0.3139
vn 0.6168 0.7187 0.3210
vn 0.7025 0.6896 0.1761
vn 0.5611 0.7839 0.2656
vn 0.5893 0.7995 0.1161
vn 0.6593 0.7503 -0.0487
vn 0.6893 0.7217 0.0626
vn 0.5702 0.7177 0.3997
vn 0.6119 0.6146 0.4978
vn 0.4247 0.6426 0.6377
vn 0.0173 0.7725 0.6348
vn -0.2528 0.8269 0.5024
vn -0.4007 0.7840 0.4741
vn -0.4306 0.8004 0.4170
vn 0.6829 0.1425 -0.7165
vn 0.8511 0.1158 -0.5121
vn 0.0975 -0.9950 -0.0212
# 271 vertex normals

vt 0.3138 0.3789 -0.0690
vt 0.3185 0.3869 -0.0690
vt 0.3003 0.3842 -0.0690
vt 0.3016 0.3760 -0.0690
vt 0.3029 0.3694 -0.0690
vt 0.3217 0.3767 0.0690
vt 0.3274 0.3865 -0.0690
vt 0.6655 0.2881 0.1050
vt 0.6834 0.2922 0.1050
vt 0.6711 0.3041 0.1050
vt 0.6478 0.3010 0.1050
vt 0.6289 0.3067 0.1050
vt 0.6314 0.2912 0.1050
vt 0.6410 0.3206 0.1050
vt 0.1463 0.5252 -0.0690
vt 0.1393 0.5116 -0.0690
vt 0.1574 0.5142 -0.0690
vt 0.1595 0.5278 -0.0690
vt 0.1393 0.5310 -0.0690
vt 0.1278 0.5176 -0.0690
vt 0.1592 0.5397 -0.0690
vt 0.5151 0.2592 0.1050
vt 0.5279 0.2653 0.1050
vt 0.5152 0.2758 0.1050
vt 0.5015 0.2628 0.1050
vt 0.4961 0.2529 0.1050
vt 0.5165 0.2443 0.1050
vt 0.5358 0.2571 0.1050
vt 0.7599 0.4418 0.1050
vt 0.7540 0.4407 0.1050
vt 0.7601 0.4315 0.1050
vt 0.7643 0.4416 0.1050
vt 0.4787 0.5662 0.1050
vt 0.4877 0.5714 0.1050
vt 0.4752 0.5850 0.1050
vt 0.4702 0.5860 0.1050
vt 0.4662 0.5878 0.1050
vt 0.4694 0.5628 0.1050
vt 0.5667 0.3935 0.1050
vt 0.5707 0.4059 0.1050
vt 0.5516 0.3984 0.1050
vt 0.5546 0.3866 0.1050
vt 0.5625 0.3732 0.1050
vt 0.5761 0.3856 0.1050
vt 0.5835 0.3954 0.1050
vt 0.3015 0.5087 -0.0690
vt 0.2917 0.5116 -0.0690
vt 0.2928 0.4955 -0.0690
vt 0.3051 0.4981 -0.0690
vt 0.3142 0.5021 -0.0690
vt 0.3053 0.5165 -0.0690
vt 0.2943 0.5215 -0.0690
vt 0.4438 0.3172 0.1050
vt 0.4267 0.3580 0.1050
vt 0.4143 0.3539 0.1050
vt 0.4318 0.3098 0.1050
vt 0.4689 0.2760 0.1050
vt 0.4780 0.2822 0.1050
vt 0.4569 0.3164 0.1050
vt 0.4626 0.2674 0.1050
vt 0.4463 0.3436 0.1050
vt 0.4391 0.3633 0.1050
vt 0.4549 0.3429 0.1050
vt 0.6563 0.3940 0.1050
vt 0.6816 0.3897 0.1050
vt 0.6787 0.4246 0.1050
vt 0.6508 0.4173 0.1050
vt 0.6253 0.3970 0.1050
vt 0.6439 0.3732 0.1050
vt 0.6691 0.3590 0.1050
vt 0.4716 0.4531 0.1050
vt 0.4608 0.4775 0.1050
vt 0.4430 0.4510 0.1050
vt 0.4538 0.4354 0.1050
vt 0.4356 0.4063 0.1050
vt 0.4508 0.4101 0.1050
vt 0.1907 0.4321 -0.0690
vt 0.1855 0.4569 -0.0690
vt 0.1582 0.4381 -0.0690
vt 0.1784 0.4142 -0.0690
vt 0.2051 0.3980 -0.0690
vt 0.2138 0.4341 -0.0690
vt 0.2145 0.4633 -0.0690
vt 0.6014 0.3299 0.1050
vt 0.5791 0.3123 0.1050
vt 0.5878 0.3009 0.1050
vt 0.6132 0.3398 0.1050
vt 0.5983 0.2877 0.1050
vt 0.4513 0.3677 0.1050
vt 0.4486 0.4897 0.1050
vt 0.4878 0.4897 0.1050
vt 0.4696 0.5248 0.1050
vt 0.4540 0.5296 0.1050
vt 0.4342 0.4977 0.1050
vt 0.5030 0.4995 0.1050
vt 0.4889 0.5319 0.1050
vt 0.5133 0.5074 0.1050
vt 0.4992 0.5419 0.1050
vt 0.7036 0.4578 0.1050
vt 0.6683 0.4652 0.1050
vt 0.6724 0.4491 0.1050
vt 0.7037 0.4422 0.1050
vt 0.7291 0.4321 0.1050
vt 0.7331 0.4448 0.1050
vt 0.7437 0.4253 0.1050
vt 0.7046 0.4175 0.1050
vt 0.7232 0.4105 0.1050
vt 0.7347 0.4061 0.1050
vt 0.7160 0.3801 0.1050
vt 0.7258 0.3774 0.1050
vt 0.7341 0.3745 0.1050
vt 0.7436 0.4016 0.1050
vt 0.7525 0.4202 0.1050
vt 0.7522 0.3973 0.1050
vt 0.7594 0.4162 0.1050
vt 0.7650 0.4288 0.1050
vt 0.7659 0.4131 0.1050
vt 0.7690 0.4265 0.1050
vt 0.7732 0.4380 0.1050
vt 0.7692 0.4393 0.1050
vt 0.4614 0.5899 0.1050
vt 0.4573 0.5906 0.1050
vt 0.4511 0.5685 0.1050
vt 0.4600 0.5656 0.1050
vt 0.4413 0.5371 0.1050
vt 0.4447 0.5723 0.1050
vt 0.4326 0.5440 0.1050
vt 0.4131 0.5065 0.1050
vt 0.4230 0.5032 0.1050
vt 0.3994 0.4590 0.1050
vt 0.4088 0.4584 0.1050
vt 0.4186 0.4590 0.1050
vt 0.4041 0.4019 0.1050
vt 0.4174 0.4024 0.1050
vt 0.4255 0.4037 0.1050
vt 0.4279 0.4580 0.1050
vt 0.3945 0.4013 0.1050
vt 0.4050 0.3504 0.1050
vt 0.1161 0.4036 -0.0690
vt 0.1441 0.3656 -0.0690
vt 0.1494 0.3728 -0.0690
vt 0.1218 0.4087 -0.0690
vt 0.1062 0.4515 -0.0690
vt 0.0974 0.4469 -0.0690
vt 0.4241 0.3031 0.1050
vt 0.1091 0.4953 -0.0690
vt 0.0999 0.4967 -0.0690
vt 0.4581 0.2620 0.1050
vt 0.1207 0.5226 -0.0690
vt 0.1142 0.5272 -0.0690
vt 0.4886 0.2413 0.1050
vt 0.4920 0.2464 0.1050
vt 0.5177 0.2314 0.1050
vt 0.5172 0.2376 0.1050
vt 0.5464 0.2421 0.1050
vt 0.5433 0.2507 0.1050
vt 0.5690 0.2704 0.1050
vt 0.5601 0.2802 0.1050
vt 0.5755 0.2568 0.1050
vt 0.6054 0.2703 0.1050
vt 0.5492 0.2343 0.1050
vt 0.5795 0.2451 0.1050
vt 0.6094 0.2570 0.1050
vt 0.6388 0.2658 0.1050
vt 0.6351 0.2769 0.1050
vt 0.5819 0.2360 0.1050
vt 0.6123 0.2469 0.1050
vt 0.6424 0.2571 0.1050
vt 0.6693 0.2673 0.1050
vt 0.6673 0.2734 0.1050
vt 0.6152 0.2383 0.1050
vt 0.6450 0.2496 0.1050
vt 0.6723 0.2611 0.1050
vt 0.6921 0.2728 0.1050
vt 0.6894 0.2780 0.1050
vt 0.2486 0.5312 -0.0690
vt 0.2475 0.5224 -0.0690
vt 0.2754 0.5212 -0.0690
vt 0.2759 0.5284 -0.0690
vt 0.2961 0.5285 -0.0690
vt 0.2467 0.5110 -0.0690
vt 0.2752 0.5117 -0.0690
vt 0.2455 0.4940 -0.0690
vt 0.2733 0.4943 -0.0690
vt 0.2433 0.4664 -0.0690
vt 0.2741 0.4691 -0.0690
vt 0.2962 0.4719 -0.0690
vt 0.3104 0.4743 -0.0690
vt 0.2719 0.4397 -0.0690
vt 0.2962 0.4423 -0.0690
vt 0.3113 0.4438 -0.0690
vt 0.3216 0.4448 -0.0690
vt 0.3203 0.4761 -0.0690
vt 0.2937 0.4153 -0.0690
vt 0.3107 0.4170 -0.0690
vt 0.3217 0.4182 -0.0690
vt 0.7607 0.3936 0.1050
vt 0.7520 0.3672 0.1050
vt 0.7605 0.3642 0.1050
vt 0.7693 0.3912 0.1050
vt 0.3142 0.3984 -0.0690
vt 0.3243 0.3993 -0.0690
vt 0.7725 0.4111 0.1050
vt 0.7735 0.4249 0.1050
vt 0.2962 0.3966 -0.0690
vt 0.2683 0.4095 -0.0690
vt 0.2712 0.3873 -0.0690
vt 0.2727 0.3748 -0.0690
vt 0.2374 0.3769 -0.0690
vt 0.2378 0.3620 -0.0690
vt 0.2381 0.3505 -0.0690
vt 0.2743 0.3652 -0.0690
vt 0.2384 0.3413 -0.0690
vt 0.2754 0.3574 -0.0690
vt 0.1971 0.3637 -0.0690
vt 0.1948 0.3539 -0.0690
vt 0.1929 0.3454 -0.0690
vt 0.1559 0.3822 -0.0690
vt 0.2001 0.3767 -0.0690
vt 0.1647 0.3943 -0.0690
vt 0.1417 0.4251 -0.0690
vt 0.1299 0.4156 -0.0690
vt 0.1314 0.4617 -0.0690
vt 0.1170 0.4561 -0.0690
vt 0.1336 0.4934 -0.0690
vt 0.1196 0.4941 -0.0690
vt 0.1517 0.4697 -0.0690
vt 0.1553 0.4963 -0.0690
vt 0.1846 0.5064 -0.0690
vt 0.1865 0.5219 -0.0690
vt 0.1820 0.4839 -0.0690
vt 0.2149 0.4914 -0.0690
vt 0.2165 0.5101 -0.0690
vt 0.2178 0.5235 -0.0690
vt 0.2189 0.5339 -0.0690
vt 0.1879 0.5328 -0.0690
vt 0.5854 0.2262 0.1050
vt 0.1891 0.5429 -0.0690
vt 0.2373 0.3991 -0.0690
vt 0.2397 0.4344 -0.0690
vt 0.7431 0.3709 0.1050
vt 0.7319 0.3406 0.1050
vt 0.7395 0.3372 0.1050
vt 0.7472 0.3326 0.1050
vt 0.7195 0.3124 0.1050
vt 0.7258 0.3101 0.1050
vt 0.7330 0.3064 0.1050
vt 0.7076 0.2901 0.1050
vt 0.7167 0.2904 0.1050
vt 0.7252 0.2899 0.1050
vt 0.7072 0.2819 0.1050
vt 0.3106 0.5223 -0.0690
vt 0.7040 0.2941 0.1050
vt 0.6880 0.2815 0.1050
vt 0.7132 0.3149 0.1050
vt 0.7069 0.3181 0.1050
vt 0.6998 0.2989 0.1050
vt 0.7240 0.3436 0.1050
vt 0.7158 0.3459 0.1050
vt 0.7064 0.3488 0.1050
vt 0.6977 0.3236 0.1050
vt 0.6822 0.3297 0.1050
vt 0.6765 0.3143 0.1050
vt 0.6925 0.3048 0.1050
vt 0.6921 0.3528 0.1050
vt 0.6555 0.3386 0.1050
vt 0.7019 0.3843 0.1050
vt 0.6266 0.3544 0.1050
vt 0.6181 0.3460 0.1050
vt 0.6491 0.3291 0.1050
vt 0.5998 0.3727 0.1050
vt 0.5917 0.3636 0.1050
vt 0.6087 0.3816 0.1050
vt 0.5934 0.4030 0.1050
vt 0.6118 0.4186 0.1050
vt 0.6407 0.4389 0.1050
vt 0.6344 0.4524 0.1050
vt 0.6018 0.4318 0.1050
vt 0.5809 0.4157 0.1050
vt 0.5641 0.4176 0.1050
vt 0.5536 0.4416 0.1050
vt 0.5390 0.4345 0.1050
vt 0.5474 0.4105 0.1050
vt 0.5176 0.4233 0.1050
vt 0.5234 0.3970 0.1050
vt 0.5268 0.3815 0.1050
vt 0.4894 0.3803 0.1050
vt 0.4924 0.3641 0.1050
vt 0.4983 0.3424 0.1050
vt 0.5299 0.3669 0.1050
vt 0.5152 0.3165 0.1050
vt 0.5390 0.3474 0.1050
vt 0.5411 0.2984 0.1050
vt 0.5631 0.3260 0.1050
vt 0.5808 0.3503 0.1050
vt 0.5525 0.2883 0.1050
vt 0.4931 0.2942 0.1050
vt 0.4717 0.3226 0.1050
vt 0.4686 0.3502 0.1050
vt 0.4639 0.3746 0.1050
vt 0.4823 0.4127 0.1050
vt 0.5039 0.4605 0.1050
vt 0.5223 0.4693 0.1050
vt 0.5344 0.4760 0.1050
vt 0.6865 0.2858 0.1050
vt 0.6658 0.2800 0.1050
vt 0.5504 0.2253 0.1050
vt 0.5237 0.2252 0.1050
vt 0.5289 0.2159 0.1050
vt 0.1350 0.5400 -0.0690
vt 0.1317 0.5474 0.0666
vt 0.4522 0.5913 -0.1050
vt 0.7779 0.4356 -0.1050
# 313 texture coords

o MedRock2_Low
g MedRock2_Low
usemtl default
s 1
f 1/1/1 2/2/2 3/3/3 4/4/4 
f 1/1/1 4/4/4 5/5/5 6/6/6 
f 6/6/6 7/7/7 2/2/2 1/1/1 
f 8/8/8 9/9/9 10/10/10 11/11/11 
f 11/11/11 12/12/12 13/13/13 8/8/8 
f 11/11/11 10/10/10 14/14/14 12/12/12 
f 15/15/15 16/16/16 17/17/17 18/18/18 
f 19/19/19 20/20/20 16/16/16 15/15/15 
f 15/15/15 18/18/18 21/21/21 19/19/19 
f 22/22/22 23/23/23 24/24/24 25/25/25 
f 22/22/22 25/25/25 26/26/26 27/27/27 
f 22/22/22 27/27/27 28/28/28 23/23/23 
f 29/29/29 30/30/30 31/31/31 32/32/32 
f 33/33/33 34/34/34 30/35/30 29/36/29 
f 32/37/32 35/38/35 33/33/33 29/36/29 
f 36/39/36 37/40/37 38/41/38 39/42/39 
f 36/39/36 39/42/39 40/43/40 41/44/41 
f 36/39/36 41/44/41 42/45/42 37/40/37 
f 43/46/43 44/47/44 45/48/45 46/49/46 
f 43/46/43 46/49/46 47/50/47 48/51/48 
f 48/51/48 49/52/49 44/47/44 43/46/43 
f 50/53/50 51/54/51 52/55/52 53/56/53 
f 54/57/54 55/58/55 56/59/56 50/53/50 
f 53/56/53 57/60/57 54/57/54 50/53/50 
f 58/61/58 59/62/59 51/54/51 50/53/50 
f 50/53/50 56/59/56 60/63/60 58/61/58 
f 61/64/61 62/65/62 63/66/63 64/67/64 
f 61/64/61 64/67/64 65/68/65 66/69/66 
f 61/64/61 66/69/66 67/70/67 62/65/62 
f 68/71/68 69/72/69 70/73/70 71/74/71 
f 71/74/71 70/73/70 72/75/72 73/76/73 
f 74/77/74 75/78/75 76/79/76 77/80/74 
f 74/77/74 77/80/74 78/81/77 79/82/78 
f 79/82/78 80/83/79 75/78/75 74/77/74 
f 81/84/80 82/85/81 83/86/82 12/12/12 
f 12/12/12 14/14/14 84/87/83 81/84/80 
f 12/12/12 83/86/82 85/88/84 13/13/13 
f 58/61/58 60/63/60 86/89/85 59/62/59 
f 87/90/86 69/72/69 88/91/87 89/92/88 
f 90/93/89 91/94/90 87/90/86 89/92/88 
f 89/92/88 88/91/87 92/95/91 93/96/92 
f 93/96/92 33/33/33 35/38/35 89/92/88 
f 93/96/92 92/95/91 94/97/93 95/98/94 
f 95/98/94 34/34/34 33/33/33 93/96/92 
f 95/99/94 94/100/93 96/101/95 97/102/96 
f 97/102/96 98/103/97 34/104/34 95/99/94 
f 99/105/98 30/30/30 34/104/34 98/103/97 
f 98/103/97 97/102/96 100/106/99 101/107/100 
f 101/107/100 102/108/101 99/105/98 98/103/97 
f 102/108/101 101/107/100 103/109/102 104/110/103 
f 104/110/103 105/111/104 106/112/105 102/108/101 
f 102/108/101 106/112/105 107/113/106 99/105/98 
f 106/112/105 108/114/107 109/115/108 107/113/106 
f 109/115/108 110/116/109 31/31/31 107/113/106 
f 107/113/106 31/31/31 30/30/30 99/105/98 
f 109/115/108 111/117/110 112/118/111 110/116/109 
f 112/118/111 113/119/112 114/120/113 110/116/109 
f 114/120/113 32/32/32 31/31/31 110/116/109 
f 114/121/113 113/122/112 115/123/114 116/124/115 
f 116/124/115 35/38/35 32/37/32 114/121/113 
f 116/124/115 115/123/114 117/125/116 90/93/89 
f 90/93/89 89/92/88 35/38/35 116/124/115 
f 115/123/114 5/126/5 118/127/117 117/125/116 
f 117/125/116 118/127/117 119/128/118 120/129/119 
f 120/129/119 91/94/90 90/93/89 117/125/116 
f 120/129/119 119/128/118 121/130/120 122/131/121 
f 122/131/121 123/132/122 91/94/90 120/129/119 
f 122/131/121 124/133/123 125/134/124 123/132/122 
f 125/134/124 126/135/125 127/136/126 123/132/122 
f 123/132/122 127/136/126 87/90/86 91/94/90 
f 126/135/125 72/75/72 70/73/70 127/136/126 
f 127/136/126 70/73/70 69/72/69 87/90/86 
f 125/134/124 51/54/51 59/62/59 126/135/125 
f 59/62/59 86/89/85 72/75/72 126/135/125 
f 124/133/123 52/55/52 51/54/51 125/134/124 
f 124/133/123 122/131/121 121/130/120 128/137/127 
f 128/137/127 129/138/128 52/55/52 124/133/123 
f 129/139/128 128/140/127 130/141/129 131/142/130 
f 131/142/130 132/143/131 133/144/132 129/139/128 
f 129/138/128 133/145/132 53/56/53 52/55/52 
f 132/143/131 134/146/133 135/147/134 133/144/132 
f 133/145/132 135/148/134 57/60/57 53/56/53 
f 134/146/133 136/149/135 137/150/136 135/147/134 
f 137/151/136 138/152/137 57/60/57 135/148/134 
f 138/152/137 137/151/136 139/153/138 140/154/139 
f 138/152/137 140/154/139 27/27/27 26/26/26 
f 26/26/26 54/57/54 57/60/57 138/152/137 
f 140/154/139 139/153/138 141/155/140 142/156/141 
f 142/156/141 28/28/28 27/27/27 140/154/139 
f 142/156/141 143/157/142 144/158/143 28/28/28 
f 142/156/141 141/155/140 145/159/144 143/157/142 
f 146/160/145 85/88/84 143/157/142 145/159/144 
f 141/155/140 147/161/146 148/162/147 145/159/144 
f 145/159/144 148/162/147 149/163/148 146/160/145 
f 149/163/148 150/164/149 151/165/150 146/160/145 
f 148/162/147 152/166/151 153/167/152 149/163/148 
f 153/167/152 154/168/153 150/164/149 149/163/148 
f 154/168/153 155/169/154 156/170/155 150/164/149 
f 153/167/152 157/171/156 158/172/157 154/168/153 
f 158/172/157 159/173/158 155/169/154 154/168/153 
f 160/174/159 161/175/160 155/169/154 159/173/158 
f 158/176/157 162/177/161 163/178/162 159/179/158 
f 159/179/158 163/178/162 49/52/49 160/180/159 
f 162/177/161 164/181/163 165/182/164 163/178/162 
f 163/178/162 165/182/164 44/47/44 49/52/49 
f 164/181/163 166/183/165 167/184/166 165/182/164 
f 165/182/164 167/184/166 45/48/45 44/47/44 
f 166/183/165 168/185/167 169/186/168 167/184/166 
f 167/184/166 169/186/168 170/187/169 45/48/45 
f 171/188/170 46/49/46 45/48/45 170/187/169 
f 169/186/168 172/189/171 173/190/172 170/187/169 
f 170/187/169 173/190/172 174/191/173 171/188/170 
f 175/192/174 176/193/175 171/188/170 174/191/173 
f 173/190/172 177/194/176 178/195/177 174/191/173 
f 174/191/173 178/195/177 179/196/178 175/192/174 
f 180/197/179 181/198/180 175/199/174 179/200/178 
f 179/196/178 178/195/177 182/201/181 183/202/182 
f 183/203/182 111/117/110 180/197/179 179/200/178 
f 183/202/182 182/201/181 2/2/2 7/7/7 
f 7/204/7 112/118/111 111/117/110 183/203/182 
f 178/195/177 177/194/176 184/205/183 182/201/181 
f 182/201/181 184/205/183 3/3/3 2/2/2 
f 184/205/183 177/194/176 185/206/184 186/207/185 
f 186/207/185 187/208/186 3/3/3 184/205/183 
f 187/208/186 186/207/185 188/209/187 189/210/188 
f 189/210/188 190/211/189 191/212/190 187/208/186 
f 187/208/186 191/212/190 4/4/4 3/3/3 
f 190/211/189 119/213/118 118/214/117 191/212/190 
f 191/212/190 118/214/117 5/5/5 4/4/4 
f 190/211/189 189/210/188 192/215/191 193/216/192 
f 193/216/192 121/217/120 119/213/118 190/211/189 
f 193/216/192 192/215/191 194/218/193 130/141/129 
f 130/141/129 128/140/127 121/217/120 193/216/192 
f 192/215/191 195/219/194 196/220/195 194/218/193 
f 196/220/195 197/221/196 198/222/197 194/218/193 
f 194/218/193 198/222/197 131/142/130 130/141/129 
f 197/221/196 199/223/198 200/224/199 198/222/197 
f 198/222/197 200/224/199 132/143/131 131/142/130 
f 199/223/198 201/225/200 202/226/201 200/224/199 
f 200/224/199 202/226/201 134/146/133 132/143/131 
f 201/225/200 16/16/16 20/20/20 202/226/201 
f 202/226/201 20/20/20 136/149/135 134/146/133 
f 201/225/200 199/223/198 203/227/202 204/228/203 
f 204/228/203 17/17/17 16/16/16 201/225/200 
f 205/229/204 206/230/205 17/17/17 204/228/203 
f 204/228/203 203/227/202 207/231/206 205/229/204 
f 208/232/207 209/233/208 205/229/204 207/231/206 
f 203/227/202 76/79/76 75/78/75 207/231/206 
f 207/231/206 75/78/75 80/83/79 208/232/207 
f 164/181/163 162/177/161 210/234/209 209/233/208 
f 209/233/208 210/234/209 206/230/205 205/229/204 
f 209/233/208 208/232/207 166/183/165 164/181/163 
f 162/177/161 158/176/157 157/235/156 210/234/209 
f 210/234/209 157/235/156 211/236/210 206/230/205 
f 157/171/156 153/167/152 152/166/151 211/237/210 
f 211/236/210 152/238/151 21/21/21 18/18/18 
f 18/18/18 17/17/17 206/230/205 211/236/210 
f 208/232/207 80/83/79 168/185/167 166/183/165 
f 199/223/198 197/221/196 76/79/76 203/227/202 
f 197/221/196 196/220/195 77/80/74 76/79/76 
f 196/220/195 195/219/194 78/81/77 77/80/74 
f 188/209/187 212/239/211 78/81/77 195/219/194 
f 195/219/194 192/215/191 189/210/188 188/209/187 
f 185/206/184 172/189/171 213/240/212 212/239/211 
f 212/239/211 213/240/212 79/82/78 78/81/77 
f 212/239/211 188/209/187 186/207/185 185/206/184 
f 172/189/171 169/186/168 168/185/167 213/240/212 
f 213/240/212 168/185/167 80/83/79 79/82/78 
f 177/194/176 173/190/172 172/189/171 185/206/184 
f 214/241/213 215/242/214 216/243/215 181/198/180 
f 181/198/180 216/243/215 176/244/175 175/199/174 
f 181/198/180 180/197/179 108/114/107 214/241/213 
f 215/242/214 217/245/216 218/246/217 216/243/215 
f 218/246/217 47/247/47 176/244/175 216/243/215 
f 218/246/217 217/245/216 219/248/218 220/249/219 
f 220/249/219 48/250/48 47/247/47 218/246/217 
f 220/251/219 219/248/218 161/175/160 160/174/159 
f 160/180/159 49/52/49 48/51/48 220/252/219 
f 219/248/218 221/253/220 222/254/221 161/175/160 
f 217/245/216 223/255/222 221/253/220 219/248/218 
f 223/255/222 224/256/223 225/257/224 221/253/220 
f 217/245/216 215/242/214 226/258/225 223/255/222 
f 226/258/225 227/259/226 224/256/223 223/255/222 
f 227/259/226 228/260/227 229/261/228 224/256/223 
f 226/258/225 105/111/104 104/110/103 227/259/226 
f 227/259/226 104/110/103 103/109/102 228/260/227 
f 229/261/228 230/262/229 231/263/230 232/264/231 
f 232/264/231 225/257/224 224/256/223 229/261/228 
f 229/261/228 228/260/227 233/265/232 230/262/229 
f 67/70/67 234/266/233 230/262/229 233/265/232 
f 228/260/227 103/109/102 235/267/234 233/265/232 
f 233/265/232 235/267/234 62/65/62 67/70/67 
f 235/267/234 103/109/102 101/107/100 100/106/99 
f 100/106/99 63/66/63 62/65/62 235/267/234 
f 236/268/235 237/269/236 238/270/237 234/266/233 
f 234/266/233 238/270/237 231/263/230 230/262/229 
f 234/266/233 67/70/67 66/69/66 236/268/235 
f 237/269/236 84/87/83 14/14/14 238/270/237 
f 238/270/237 14/14/14 10/10/10 231/263/230 
f 237/269/236 239/271/238 240/272/239 84/87/83 
f 236/268/235 241/273/240 239/271/238 237/269/236 
f 241/273/240 242/274/241 42/45/42 239/271/238 
f 241/273/240 236/268/235 66/69/66 65/68/65 
f 65/68/65 243/275/242 242/274/241 241/273/240 
f 244/276/243 245/277/244 246/278/245 243/275/242 
f 243/275/242 246/278/245 247/279/246 242/274/241 
f 243/275/242 65/68/65 64/67/64 244/276/243 
f 247/280/246 246/281/245 248/282/247 249/283/248 
f 249/283/248 38/41/38 37/40/37 247/280/246 
f 37/40/37 42/45/42 242/274/241 247/279/246 
f 249/283/248 248/282/247 250/284/249 251/285/250 
f 251/285/250 252/286/251 38/41/38 249/283/248 
f 252/286/251 251/285/250 253/287/252 254/288/253 
f 254/288/253 255/289/254 256/290/255 252/286/251 
f 252/286/251 256/290/255 39/42/39 38/41/38 
f 255/289/254 257/291/256 258/292/257 256/290/255 
f 256/290/255 258/292/257 40/43/40 39/42/39 
f 258/292/257 257/291/256 259/293/258 260/294/259 
f 258/292/257 260/294/259 261/295/260 40/43/40 
f 261/295/260 260/294/259 82/85/81 81/84/80 
f 81/84/80 84/87/83 240/272/239 261/295/260 
f 240/272/239 41/44/41 40/43/40 261/295/260 
f 260/294/259 259/293/258 262/296/261 82/85/81 
f 259/293/258 24/24/24 23/23/23 262/296/261 
f 23/23/23 28/28/28 144/158/143 262/296/261 
f 144/158/143 83/86/82 82/85/81 262/296/261 
f 257/291/256 263/297/262 24/24/24 259/293/258 
f 264/298/263 56/59/56 55/58/55 263/297/262 
f 263/297/262 55/58/55 25/25/25 24/24/24 
f 257/291/256 255/289/254 264/298/263 263/297/262 
f 264/298/263 265/299/264 60/63/60 56/59/56 
f 255/289/254 254/288/253 265/299/264 264/298/263 
f 265/299/264 266/300/265 86/89/85 60/63/60 
f 254/288/253 253/287/252 266/300/265 265/299/264 
f 73/76/73 72/75/72 86/89/85 266/300/265 
f 266/300/265 253/287/252 267/301/266 73/76/73 
f 267/301/266 68/71/68 71/74/71 73/76/73 
f 267/301/266 253/287/252 251/285/250 250/284/249 
f 267/301/266 250/284/249 268/302/267 68/71/68 
f 88/91/87 69/72/69 68/71/68 268/302/267 
f 268/302/267 250/284/249 248/282/247 269/303/268 
f 268/302/267 269/303/268 92/95/91 88/91/87 
f 269/303/268 248/282/247 246/281/245 245/304/244 
f 269/303/268 245/304/244 94/97/93 92/95/91 
f 245/277/244 244/276/243 96/101/95 94/100/93 
f 64/67/64 63/66/63 96/101/95 244/276/243 
f 239/271/238 42/45/42 41/44/41 240/272/239 
f 232/264/231 231/263/230 10/10/10 9/9/9 
f 9/9/9 270/305/269 225/257/224 232/264/231 
f 9/9/9 8/8/8 271/306/270 270/305/269 
f 270/305/269 271/306/270 156/170/155 222/254/221 
f 270/305/269 222/254/221 221/253/220 225/257/224 
f 8/8/8 13/13/13 151/165/150 271/306/270 
f 271/306/270 151/165/150 150/164/149 156/170/155 
f 215/242/214 214/241/213 105/111/104 226/258/225 
f 156/170/155 155/169/154 161/175/160 222/254/221 
f 108/114/107 106/112/105 105/111/104 214/241/213 
f 111/117/110 109/115/108 108/114/107 180/197/179 
f 176/193/175 47/50/47 46/49/46 171/188/170 
f 152/166/151 148/162/147 147/161/146 21/307/21 
f 13/13/13 85/88/84 146/160/145 151/165/150 
f 147/161/146 141/155/140 139/153/138 272/308/271 
f 272/308/271 19/309/19 21/307/21 147/161/146 
f 136/149/135 20/20/20 19/19/19 272/310/271 
f 272/310/271 139/311/138 137/150/136 136/149/135 
f 143/157/142 85/88/84 83/86/82 144/158/143 
f 113/122/112 6/312/6 5/126/5 115/123/114 
f 112/118/111 7/204/7 6/313/6 113/119/112 
f 97/102/96 96/101/95 63/66/63 100/106/99 
f 55/58/55 54/57/54 26/26/26 25/25/25 
# 270 polygons

