%YAML 1.1
%TAG !u! tag:unity3d.com,2011:
--- !u!21 &2100000
Material:
  serializedVersion: 6
  m_ObjectHideFlags: 0
  m_CorrespondingSourceObject: {fileID: 0}
  m_PrefabInstance: {fileID: 0}
  m_PrefabAsset: {fileID: 0}
  m_Name: Head
  m_Shader: {fileID: 4800000, guid: f73ccecafa2df5c4281da8cbc1006065, type: 3}
  m_ShaderKeywords: 
  m_LightmapFlags: 4
  m_EnableInstancingVariants: 0
  m_DoubleSidedGI: 0
  m_CustomRenderQueue: -1
  stringTagMap: {}
  disabledShaderPasses: []
  m_SavedProperties:
    serializedVersion: 3
    m_TexEnvs:
    - Texture2D_1F94298A:
        m_Texture: {fileID: 0}
        m_Scale: {x: 1, y: 1}
        m_Offset: {x: 0, y: 0}
    - Texture2D_44758B8B:
        m_Texture: {fileID: 2800000, guid: 1928311e1938a4af98d7d7f5cb5d918e, type: 3}
        m_Scale: {x: 1, y: 1}
        m_Offset: {x: 0, y: 0}
    - Texture2D_A1AC5E08:
        m_Texture: {fileID: 0}
        m_Scale: {x: 1, y: 1}
        m_Offset: {x: 0, y: 0}
    m_Floats:
    - Boolean_5F3F3066: 1
    - Boolean_7D16A5C7: 0
    - Boolean_ED1F7A45: 0
    - Vector1_28DB988: 3
    - Vector1_30136C17: 0.51
    - Vector1_3A15C4B4: -0.1
    - Vector1_43110730: 0.587
    - Vector1_462FB5AE: 7.5
    - Vector1_6C2FFD40: 0.07
    - Vector1_B3B28F64: 2.5
    - Vector1_C91F4DC7: 0.4
    - Vector1_D0D0CB2A: 0.37
    m_Colors:
    - Color_11680D00: {r: 0, g: 0, b: 0, a: 0}
    - Color_8BC11E58: {r: 1, g: 1, b: 1, a: 1}
    - Color_AFF33C77: {r: 0, g: 0, b: 0, a: 0}
