%YAML 1.1
%TAG !u! tag:unity3d.com,2011:
--- !u!21 &2100000
Material:
  serializedVersion: 6
  m_ObjectHideFlags: 0
  m_CorrespondingSourceObject: {fileID: 0}
  m_PrefabInstance: {fileID: 0}
  m_PrefabAsset: {fileID: 0}
  m_Name: Shader Graphs_CrosshatchShader
  m_Shader: {fileID: -6465566751694194690, guid: d79619d0729ea7c4d9a93b70b4896212,
    type: 3}
  m_ShaderKeywords: 
  m_LightmapFlags: 4
  m_EnableInstancingVariants: 0
  m_DoubleSidedGI: 0
  m_CustomRenderQueue: -1
  stringTagMap: {}
  disabledShaderPasses: []
  m_SavedProperties:
    serializedVersion: 3
    m_TexEnvs:
    - Texture2D_56E9A3EF:
        m_Texture: {fileID: 2800000, guid: b5b84ee194190424fb6eff67ef7e4ecc, type: 3}
        m_Scale: {x: 1, y: 1}
        m_Offset: {x: 0, y: 0}
    m_Floats:
    - Vector1_5C60158B: 3.99
    - Vector1_5D04D335: 0.1
    - Vector1_A7651D7D: 1.67
    - Vector1_C416C9B: 0
    - Vector1_E5ED0A8B: 25.86
    - Vector1_F9156471: 0.01
    m_Colors:
    - Color_D421827E: {r: 0, g: 0, b: 0, a: 0}
    - Color_F1C5DC1C: {r: 1, g: 1, b: 1, a: 1}
    - Vector3_231FE735: {r: 0, g: 0, b: 0, a: 0}
    - Vector3_4B4958DA: {r: 3, g: 3, b: 3, a: 0}
