%YAML 1.1
%TAG !u! tag:unity3d.com,2011:
--- !u!1 &1129055609539989447
GameObject:
  m_ObjectHideFlags: 0
  m_CorrespondingSourceObject: {fileID: 0}
  m_PrefabInstance: {fileID: 0}
  m_PrefabAsset: {fileID: 0}
  serializedVersion: 6
  m_Component:
  - component: {fileID: 1109742710183307602}
  m_Layer: 0
  m_Name: Watermelon
  m_TagString: Untagged
  m_Icon: {fileID: 0}
  m_NavMeshLayer: 0
  m_StaticEditorFlags: 0
  m_IsActive: 1
--- !u!4 &1109742710183307602
Transform:
  m_ObjectHideFlags: 0
  m_CorrespondingSourceObject: {fileID: 0}
  m_PrefabInstance: {fileID: 0}
  m_PrefabAsset: {fileID: 0}
  m_GameObject: {fileID: 1129055609539989447}
  m_LocalRotation: {x: -0, y: -0, z: -0, w: 1}
  m_LocalPosition: {x: -16.31, y: 2.4909675, z: 8.72}
  m_LocalScale: {x: 1, y: 1, z: 1}
  m_Children:
  - {fileID: 2433686180278199520}
  m_Father: {fileID: 0}
  m_RootOrder: 0
  m_LocalEulerAnglesHint: {x: 0, y: 0, z: 0}
--- !u!1001 &3177994282419568096
PrefabInstance:
  m_ObjectHideFlags: 0
  serializedVersion: 2
  m_Modification:
    m_TransformParent: {fileID: 1109742710183307602}
    m_Modifications:
    - target: {fileID: 4289653912165919507, guid: 4f4ef19590c609d4c93d2e340ea90950,
        type: 3}
      propertyPath: m_Name
      value: WaterMelon Variant
      objectReference: {fileID: 0}
    - target: {fileID: 998867115875588352, guid: 4f4ef19590c609d4c93d2e340ea90950,
        type: 3}
      propertyPath: m_LocalPosition.x
      value: 0
      objectReference: {fileID: 0}
    - target: {fileID: 998867115875588352, guid: 4f4ef19590c609d4c93d2e340ea90950,
        type: 3}
      propertyPath: m_LocalPosition.y
      value: 0
      objectReference: {fileID: 0}
    - target: {fileID: 998867115875588352, guid: 4f4ef19590c609d4c93d2e340ea90950,
        type: 3}
      propertyPath: m_LocalPosition.z
      value: 0
      objectReference: {fileID: 0}
    - target: {fileID: 998867115875588352, guid: 4f4ef19590c609d4c93d2e340ea90950,
        type: 3}
      propertyPath: m_LocalRotation.x
      value: -0
      objectReference: {fileID: 0}
    - target: {fileID: 998867115875588352, guid: 4f4ef19590c609d4c93d2e340ea90950,
        type: 3}
      propertyPath: m_LocalRotation.y
      value: -0
      objectReference: {fileID: 0}
    - target: {fileID: 998867115875588352, guid: 4f4ef19590c609d4c93d2e340ea90950,
        type: 3}
      propertyPath: m_LocalRotation.z
      value: -0
      objectReference: {fileID: 0}
    - target: {fileID: 998867115875588352, guid: 4f4ef19590c609d4c93d2e340ea90950,
        type: 3}
      propertyPath: m_LocalRotation.w
      value: 1
      objectReference: {fileID: 0}
    - target: {fileID: 998867115875588352, guid: 4f4ef19590c609d4c93d2e340ea90950,
        type: 3}
      propertyPath: m_RootOrder
      value: 0
      objectReference: {fileID: 0}
    - target: {fileID: 998867115875588352, guid: 4f4ef19590c609d4c93d2e340ea90950,
        type: 3}
      propertyPath: m_LocalEulerAnglesHint.x
      value: 0
      objectReference: {fileID: 0}
    - target: {fileID: 998867115875588352, guid: 4f4ef19590c609d4c93d2e340ea90950,
        type: 3}
      propertyPath: m_LocalEulerAnglesHint.y
      value: 0
      objectReference: {fileID: 0}
    - target: {fileID: 998867115875588352, guid: 4f4ef19590c609d4c93d2e340ea90950,
        type: 3}
      propertyPath: m_LocalEulerAnglesHint.z
      value: 0
      objectReference: {fileID: 0}
    m_RemovedComponents: []
  m_SourcePrefab: {fileID: 100100000, guid: 4f4ef19590c609d4c93d2e340ea90950, type: 3}
--- !u!4 &2433686180278199520 stripped
Transform:
  m_CorrespondingSourceObject: {fileID: 998867115875588352, guid: 4f4ef19590c609d4c93d2e340ea90950,
    type: 3}
  m_PrefabInstance: {fileID: 3177994282419568096}
  m_PrefabAsset: {fileID: 0}
