# 3ds Max Wavefront OBJ Exporter v0.97b - (c)2007 guruware
# File Created: 05.03.2020 12:32:06

mtllib RegFence_low.mtl

#
# object Fence_01
#

v  0.0806 0.0047 0.0000
v  0.0488 0.0047 -0.0412
v  0.0488 0.2683 -0.0554
v  0.0806 0.2683 -0.0107
v  -0.0226 0.0047 -0.0514
v  -0.0226 0.2683 -0.0664
v  -0.0798 0.0047 -0.0229
v  -0.0798 0.2683 -0.0355
v  -0.0628 0.0047 0.0229
v  -0.0628 0.2683 0.0141
v  -0.0226 0.0047 0.0514
v  -0.0226 0.2683 0.0450
v  0.0488 0.0047 0.0412
v  0.0488 0.2683 0.0340
v  0.0218 0.5319 -0.0460
v  0.0536 0.5319 0.0109
v  -0.0496 0.5319 -0.0601
v  -0.1068 0.5319 -0.0207
v  -0.0898 0.5319 0.0425
v  -0.0496 0.5319 0.0819
v  0.0218 0.5319 0.0679
v  0.0177 0.7954 -0.0476
v  0.0495 0.7954 -0.0064
v  -0.0537 0.7954 -0.0577
v  -0.1109 0.7954 -0.0292
v  -0.0939 0.7954 0.0165
v  -0.0537 0.7954 0.0450
v  0.0177 0.7954 0.0348
v  0.0488 1.0590 -0.0510
v  0.0806 1.0590 -0.0003
v  -0.0226 1.0590 -0.0636
v  -0.0798 1.0590 -0.0285
v  -0.0628 1.0590 0.0279
v  -0.0226 1.0590 0.0630
v  0.0488 1.0590 0.0504
v  0.0684 1.3282 -0.0798
v  0.1124 1.3117 0.0000
v  -0.0307 1.3282 -0.0995
v  -0.1101 1.3136 -0.0443
v  -0.0864 1.2923 0.0443
v  -0.0307 1.2867 0.0995
v  0.0684 1.2923 0.0798
v  -0.0046 1.3117 0.0000
v  0.0366 1.1626 -0.0339
v  0.0366 1.0170 -0.0404
v  -0.4454 1.0520 -0.0534
v  -0.4454 1.1826 -0.0481
v  0.0366 0.9838 0.0044
v  -0.4454 1.0176 -0.0172
v  0.0366 1.0328 0.0449
v  -0.4454 1.0666 0.0156
v  0.0366 1.1694 0.0391
v  -0.4454 1.1897 0.0110
v  -1.0093 1.0225 -0.0599
v  -1.0093 1.1647 -0.0546
v  -1.0093 0.9880 -0.0235
v  -1.0093 1.0371 0.0093
v  -1.0093 1.1720 0.0046
v  -1.8829 1.1615 -0.0336
v  -1.8829 1.0341 -0.0399
v  -1.8829 1.0927 0.0044
v  -1.8829 0.9851 0.0040
v  -1.8829 1.0543 0.0438
v  -1.8829 1.1726 0.0381
v  0.0111 0.3267 0.0141
v  0.0111 0.4495 0.0290
v  -0.3334 0.4228 0.0213
v  -0.3334 0.2854 0.0258
v  0.0111 0.4776 -0.0074
v  -0.3334 0.4440 -0.0190
v  0.0111 0.4361 -0.0402
v  -0.3334 0.3969 -0.0448
v  0.0111 0.3206 -0.0355
v  -0.3334 0.2699 -0.0219
v  -0.8010 0.2459 0.0509
v  -0.8010 0.3872 0.0314
v  -1.3695 0.4085 0.0605
v  -1.3695 0.2677 0.0800
v  -0.8010 0.4089 -0.0088
v  -1.3695 0.4302 0.0202
v  -0.8010 0.3618 -0.0346
v  -1.3695 0.3831 -0.0055
v  -0.8010 0.2246 -0.0117
v  -1.3695 0.2420 0.0173
v  -1.8829 0.4555 0.0113
v  -1.8829 0.3394 0.0310
v  -1.8829 0.4778 -0.0294
v  -1.8829 0.4302 -0.0554
v  -1.8829 0.3153 -0.0321
v  -1.8829 0.3683 -0.0121
v  -1.5289 1.0446 -0.0398
v  -1.5289 1.1760 -0.0345
v  -1.5289 1.0099 -0.0034
v  -1.5289 1.0592 0.0296
v  -1.5289 1.1835 0.0249
# 95 vertices

vn 0.9997 0.0015 0.0238
vn 0.5148 -0.0700 -0.8544
vn 0.5343 0.0289 -0.8448
vn 0.9966 0.0759 -0.0316
vn -0.1634 -0.0854 -0.9828
vn -0.1544 -0.0350 -0.9874
vn -0.9403 -0.0248 -0.3394
vn -0.9131 -0.0671 -0.4023
vn -0.7913 0.0309 0.6107
vn -0.8161 -0.0959 0.5698
vn -0.2354 0.0356 0.9712
vn -0.2379 -0.1047 0.9656
vn 0.5026 0.0360 0.8638
vn 0.5560 -0.0180 0.8310
vn 0.5817 0.0702 -0.8104
vn 0.9955 0.0885 0.0353
vn -0.2207 0.0034 -0.9753
vn -0.9459 -0.0781 -0.3151
vn -0.8548 -0.0754 0.5135
vn -0.2880 -0.0228 0.9574
vn 0.5557 0.0420 0.8303
vn 0.4887 -0.0496 -0.8710
vn 0.9964 -0.0807 -0.0264
vn -0.1805 0.0054 -0.9836
vn -0.9297 0.0604 -0.3632
vn -0.8091 0.0868 0.5812
vn -0.2683 0.0763 0.9603
vn 0.5041 0.0051 0.8636
vn 0.5682 -0.1574 -0.8077
vn 0.9835 -0.1806 0.0046
vn -0.1676 -0.1081 -0.9799
vn -0.9325 -0.0178 -0.3608
vn -0.8356 -0.0381 0.5481
vn -0.2451 -0.1566 0.9568
vn 0.5600 -0.1997 0.8040
vn 0.4937 0.6002 -0.6293
vn 0.8390 0.5422 0.0464
vn -0.1864 0.5986 -0.7791
vn -0.8072 0.5294 -0.2611
vn -0.7207 0.5157 0.4632
vn -0.2520 0.4562 0.8535
vn 0.4965 0.4774 0.7250
vn -0.0287 0.9893 0.1430
vn 0.0407 0.7091 -0.7039
vn -0.0016 -0.5183 -0.8552
vn 0.0147 -0.4466 -0.8946
vn 0.0168 0.7042 -0.7098
vn -0.0519 -0.9911 0.1228
vn -0.0088 -0.9945 0.1044
vn -0.0750 -0.4082 0.9098
vn -0.0365 -0.3525 0.9351
vn -0.0198 0.7312 0.6819
vn -0.0195 0.7637 0.6453
vn -0.0105 -0.4646 -0.8855
vn -0.0124 0.6893 -0.7244
vn 0.0046 -0.9952 0.0976
vn 0.0143 -0.3716 0.9283
vn 0.0069 0.7549 0.6558
vn -0.5948 0.5569 -0.5797
vn -0.6092 -0.3357 -0.7185
vn -1.0000 -0.0000 -0.0000
vn -0.5640 -0.8203 0.0954
vn -0.6139 -0.2501 0.7487
vn -0.5723 0.6178 0.5393
vn 0.0819 -0.7325 0.6758
vn -0.0438 0.4546 0.8896
vn -0.0316 0.6036 0.7966
vn 0.0769 -0.6115 0.7875
vn -0.0611 0.9934 -0.0975
vn -0.0532 0.9589 -0.2786
vn -0.0192 0.4161 -0.9091
vn -0.0168 0.2067 -0.9783
vn 0.0437 -0.7253 -0.6871
vn 0.0539 -0.8559 -0.5143
vn 0.0518 -0.5535 0.8313
vn 0.0199 0.6539 0.7563
vn 0.0093 0.6441 0.7649
vn -0.0477 -0.5175 0.8543
vn -0.0227 0.9616 -0.2735
vn 0.0478 0.9695 -0.2406
vn -0.0386 0.2094 -0.9771
vn 0.0329 0.2236 -0.9741
vn -0.0002 -0.8540 -0.5203
vn -0.0417 -0.8788 -0.4753
vn -0.6255 0.5443 0.5589
vn -0.6249 -0.3890 0.6769
vn -0.5651 0.7899 -0.2382
vn -0.5729 0.1702 -0.8017
vn -0.5900 -0.6789 -0.4370
vn -1.0000 0.0000 0.0000
vn -0.0194 -0.4536 -0.8910
vn -0.0191 0.7074 -0.7065
vn 0.0129 -0.9935 0.1130
vn 0.0343 -0.3557 0.9340
vn 0.0227 0.7582 0.6517
# 95 vertex normals

vt 0.4092 0.4648 -0.3641
vt 0.4092 0.4880 -1.0924
vt 0.3353 0.4877 -1.0924
vt 0.3373 0.4659 -1.0924
vt 0.4092 0.5198 -1.0924
vt 0.3319 0.5167 -1.0924
vt 0.4092 0.5549 -1.0924
vt 0.3297 0.5549 -1.0924
vt 0.4092 0.5809 -1.0924
vt 0.3317 0.5809 -1.0924
vt 0.4092 0.3764 -1.0924
vt 0.4092 0.4003 -1.0924
vt 0.3333 0.4003 -1.0924
vt 0.3339 0.3764 -1.0924
vt 0.4092 0.4425 -1.0924
vt 0.3357 0.4435 -1.0924
vt 0.2552 0.4920 -1.0924
vt 0.2563 0.4599 -1.0924
vt 0.2531 0.5257 -1.0924
vt 0.2518 0.5549 -1.0924
vt 0.2527 0.5809 -1.0924
vt 0.2555 0.4003 -1.0924
vt 0.2554 0.3764 -1.0924
vt 0.2560 0.4298 -1.0924
vt 0.1696 0.4882 -1.0924
vt 0.1683 0.4628 -1.0924
vt 0.1738 0.5220 -1.0924
vt 0.1775 0.5549 -1.0924
vt 0.1772 0.5809 -1.0924
vt 0.1756 0.4003 -1.0924
vt 0.1776 0.3764 -1.0924
vt 0.1711 0.4372 -1.0924
vt 0.0826 0.4882 -1.0924
vt 0.0810 0.4595 -1.0924
vt 0.0879 0.5230 -1.0924
vt 0.0934 0.5549 -1.0924
vt 0.0987 0.5809 -1.0924
vt 0.0911 0.4003 -1.0924
vt 0.0987 0.3764 -1.0924
vt 0.0838 0.4313 -1.0924
vt 0.0172 0.4943 1.0924
vt 0.0172 0.4554 -1.0924
vt 0.0172 0.5368 -1.0924
vt 0.0172 0.5549 -1.0924
vt 0.0172 0.5809 -1.0924
vt 0.0172 0.4003 -1.0924
vt 0.0172 0.3764 -1.0924
vt 0.0172 0.4174 -1.0924
vt 0.5899 0.0728 0.9441
vt 0.5701 0.1094 -0.9441
vt 0.5374 0.0728 0.9441
vt 0.5257 0.1183 -0.9441
vt 0.4901 0.0928 -0.9441
vt 0.5007 0.0521 -0.9441
vt 0.5258 0.0270 -0.9441
vt 0.5701 0.0361 -0.9441
vt 0.8781 0.7064 0.8101
vt 0.8781 0.7400 -0.8171
vt 0.6584 0.7306 -0.8171
vt 0.6592 0.7000 -0.8171
vt 0.8781 0.7481 -0.8171
vt 0.6586 0.7481 -0.8171
vt 0.8781 0.6193 -0.8171
vt 0.8781 0.6411 -0.8171
vt 0.6616 0.6443 -0.8171
vt 0.6607 0.6193 -0.8171
vt 0.8781 0.6728 -0.8171
vt 0.6611 0.6729 -0.8171
vt 0.3195 0.7281 -0.8171
vt 0.3173 0.6948 -0.8171
vt 0.3185 0.7481 -0.8171
vt 0.3179 0.6350 -0.8171
vt 0.3193 0.6193 -0.8171
vt 0.3158 0.6670 -0.8171
vt 0.2347 0.0683 0.8994
vt 0.2347 0.0977 0.8014
vt 0.2160 0.0824 -0.8994
vt 0.2138 0.1070 -0.8994
vt 0.1973 0.0894 -0.8994
vt 0.2025 0.0626 -0.8994
vt 0.8701 0.8996 0.4186
vt 0.8701 0.9335 -0.5315
vt 0.7159 0.9413 -0.5315
vt 0.7116 0.9037 -0.5315
vt 0.8701 0.9625 -0.5315
vt 0.7170 0.9625 -0.5315
vt 0.8701 0.8259 -0.5315
vt 0.8701 0.8454 -0.5315
vt 0.7149 0.8451 -0.5315
vt 0.7160 0.8259 -0.5315
vt 0.8701 0.8770 -0.5315
vt 0.7117 0.8813 -0.5315
vt 0.5179 0.9077 -0.5315
vt 0.5201 0.9468 -0.5315
vt 0.2508 0.9478 -0.5315
vt 0.2543 0.9085 -0.5315
vt 0.5217 0.9625 -0.5315
vt 0.2494 0.9625 -0.5315
vt 0.5223 0.8259 -0.5315
vt 0.5224 0.8428 -0.5315
vt 0.2489 0.8377 -0.5315
vt 0.2482 0.8259 -0.5315
vt 0.5198 0.8797 -0.5315
vt 0.2531 0.8781 -0.5315
vt 0.0158 0.9452 0.5315
vt 0.0158 0.9113 -0.5315
vt 0.0158 0.9625 -0.5315
vt 0.0158 0.8491 -0.5315
vt 0.0158 0.8259 -0.5315
vt 0.0158 0.8822 -0.5315
vt 0.0708 0.0623 0.1587
vt 0.0708 0.0952 0.1963
vt 0.0541 0.0753 -0.1963
vt 0.0546 0.1060 -0.1963
vt 0.0397 0.0968 -0.1963
vt 0.0414 0.0639 -0.1963
vt 0.1704 0.7236 -0.8171
vt 0.0134 0.7244 -0.8171
vt 0.0134 0.6958 -0.8171
vt 0.1695 0.6935 -0.8171
vt 0.1702 0.7481 -0.8171
vt 0.0134 0.7481 -0.8171
vt 0.1695 0.6393 -0.8171
vt 0.0134 0.6361 -0.8171
vt 0.0134 0.6193 -0.8171
vt 0.1708 0.6193 -0.8171
vt 0.1684 0.6673 -0.8171
vt 0.0134 0.6630 0.8171
# 128 texture coords

o Fence_01
g Fence_01
usemtl wire_135059008
s 8
f 1/1/1 2/2/2 3/3/3 4/4/4 
f 2/2/2 5/5/5 6/6/6 3/3/3 
f 5/5/5 7/7/7 8/8/8 6/6/6 
f 7/7/7 9/9/9 10/10/10 8/8/8 
f 9/11/9 11/12/11 12/13/12 10/14/10 
f 11/12/11 13/15/13 14/16/14 12/13/12 
f 13/15/13 1/1/1 4/4/4 14/16/14 
f 4/4/4 3/3/3 15/17/15 16/18/16 
f 3/3/3 6/6/6 17/19/17 15/17/15 
f 6/6/6 8/8/8 18/20/18 17/19/17 
f 8/8/8 10/10/10 19/21/19 18/20/18 
f 10/14/10 12/13/12 20/22/20 19/23/19 
f 12/13/12 14/16/14 21/24/21 20/22/20 
f 14/16/14 4/4/4 16/18/16 21/24/21 
f 16/18/16 15/17/15 22/25/22 23/26/23 
f 15/17/15 17/19/17 24/27/24 22/25/22 
f 17/19/17 18/20/18 25/28/25 24/27/24 
f 18/20/18 19/21/19 26/29/26 25/28/25 
f 19/23/19 20/22/20 27/30/27 26/31/26 
f 20/22/20 21/24/21 28/32/28 27/30/27 
f 21/24/21 16/18/16 23/26/23 28/32/28 
f 23/26/23 22/25/22 29/33/29 30/34/30 
f 22/25/22 24/27/24 31/35/31 29/33/29 
f 24/27/24 25/28/25 32/36/32 31/35/31 
f 25/28/25 26/29/26 33/37/33 32/36/32 
f 26/31/26 27/30/27 34/38/34 33/39/33 
f 27/30/27 28/32/28 35/40/35 34/38/34 
f 28/32/28 23/26/23 30/34/30 35/40/35 
f 30/34/30 29/33/29 36/41/36 37/42/37 
f 29/33/29 31/35/31 38/43/38 36/41/36 
f 31/35/31 32/36/32 39/44/39 38/43/38 
f 32/36/32 33/37/33 40/45/40 39/44/39 
f 33/39/33 34/38/34 41/46/41 40/47/40 
f 34/38/34 35/40/35 42/48/42 41/46/41 
f 35/40/35 30/34/30 37/42/37 42/48/42 
s off
f 37/49/37 36/50/36 43/51/43 
f 36/50/36 38/52/38 43/51/43 
f 38/52/38 39/53/39 43/51/43 
f 39/53/39 40/54/40 43/51/43 
f 40/54/40 41/55/41 43/51/43 
f 41/55/41 42/56/42 43/51/43 
f 42/56/42 37/49/37 43/51/43 
s 8
f 44/57/44 45/58/45 46/59/46 47/60/47 
f 45/58/45 48/61/48 49/62/49 46/59/46 
f 48/63/48 50/64/50 51/65/51 49/66/49 
f 50/64/50 52/67/52 53/68/53 51/65/51 
f 52/67/52 44/57/44 47/60/47 53/68/53 
f 47/60/47 46/59/46 54/69/54 55/70/55 
f 46/59/46 49/62/49 56/71/56 54/69/54 
f 49/66/49 51/65/51 57/72/57 56/73/56 
f 51/65/51 53/68/53 58/74/58 57/72/57 
f 53/68/53 47/60/47 55/70/55 58/74/58 
s off
f 59/75/59 60/76/60 61/77/61 
f 60/76/60 62/78/62 61/77/61 
f 62/78/62 63/79/63 61/77/61 
f 63/79/63 64/80/64 61/77/61 
f 64/80/64 59/75/59 61/77/61 
s 8
f 65/81/65 66/82/66 67/83/67 68/84/68 
f 66/82/66 69/85/69 70/86/70 67/83/67 
f 69/87/69 71/88/71 72/89/72 70/90/70 
f 71/88/71 73/91/73 74/92/74 72/89/72 
f 73/91/73 65/81/65 68/84/68 74/92/74 
f 75/93/75 76/94/76 77/95/77 78/96/78 
f 76/94/76 79/97/79 80/98/80 77/95/77 
f 79/99/79 81/100/81 82/101/82 80/102/80 
f 81/100/81 83/103/83 84/104/84 82/101/82 
f 83/103/83 75/93/75 78/96/78 84/104/84 
f 78/96/78 77/95/77 85/105/85 86/106/86 
f 77/95/77 80/98/80 87/107/87 85/105/85 
f 80/102/80 82/101/82 88/108/88 87/109/87 
f 82/101/82 84/104/84 89/110/89 88/108/88 
f 84/104/84 78/96/78 86/106/86 89/110/89 
s off
f 86/111/86 85/112/85 90/113/90 
f 85/112/85 87/114/87 90/113/90 
f 87/114/87 88/115/88 90/113/90 
f 88/115/88 89/116/89 90/113/90 
f 89/116/89 86/111/86 90/113/90 
s 8
f 67/83/67 76/94/76 75/93/75 68/84/68 
f 70/86/70 79/97/79 76/94/76 67/83/67 
f 72/89/72 81/100/81 79/99/79 70/90/70 
f 74/92/74 83/103/83 81/100/81 72/89/72 
f 68/84/68 75/93/75 83/103/83 74/92/74 
f 91/117/91 60/118/60 59/119/59 92/120/92 
f 93/121/93 62/122/62 60/118/60 91/117/91 
f 94/123/94 63/124/63 62/125/62 93/126/93 
f 95/127/95 64/128/64 63/124/63 94/123/94 
f 92/120/92 59/119/59 64/128/64 95/127/95 
f 54/69/54 91/117/91 92/120/92 55/70/55 
f 56/71/56 93/121/93 91/117/91 54/69/54 
f 57/72/57 94/123/94 93/126/93 56/73/56 
f 58/74/58 95/127/95 94/123/94 57/72/57 
f 55/70/55 92/120/92 95/127/95 58/74/58 
# 75 polygons - 17 triangles

